<?xml version="1.0" encoding="UTF-8" standalone="no"?>
<svg
   xmlns:dc="http://purl.org/dc/elements/1.1/"
   xmlns:cc="http://creativecommons.org/ns#"
   xmlns:rdf="http://www.w3.org/1999/02/22-rdf-syntax-ns#"
   xmlns:svg="http://www.w3.org/2000/svg"
   xmlns="http://www.w3.org/2000/svg"
   id="svg5571"
   version="1.1"
   viewBox="0 0 13.42756 16.933336"
   height="16.933336mm"
   width="13.42756mm">
  <defs
     id="defs5565" />
  <metadata
     id="metadata5568">
    <rdf:RDF>
      <cc:Work
         rdf:about="">
        <dc:format>image/svg+xml</dc:format>
        <dc:type
           rdf:resource="http://purl.org/dc/dcmitype/StillImage" />
        <dc:title></dc:title>
      </cc:Work>
    </rdf:RDF>
  </metadata>
  <g
     transform="translate(240.05757,-46.828755)"
     id="layer1">
    <path
       id="path6338"
       d="m -237.51266,63.718064 c -0.15104,-0.06918 -0.28713,-0.201008 -0.36242,-0.351064 -0.14599,-0.290959 -0.12403,-0.367246 0.68606,-2.383034 l 0.72436,-1.802474 0.72119,-1.190625 c 0.39665,-0.654844 0.76027,-1.233386 0.80804,-1.285649 0.13128,-0.143642 0.26969,-0.188183 0.84649,-0.272411 1.40523,-0.2052 2.5549,-0.634581 3.6478,-1.362386 0.74155,-0.49383 0.85559,-0.539912 1.15159,-0.465376 0.21395,0.05387 0.44748,0.28234 0.50295,0.492053 0.0495,0.187119 0.73477,5.002303 0.73424,5.159264 -5e-4,0.141532 -0.12816,0.421662 -0.23514,0.515866 -0.10311,0.09079 -0.33368,0.178713 -0.46807,0.17848 -0.32243,-5.5e-4 -0.61099,-0.219658 -0.69667,-0.528982 -0.0277,-0.100045 -0.15913,-0.952086 -0.29203,-1.893424 -0.18999,-1.345593 -0.25173,-1.711524 -0.28875,-1.711524 -0.0259,0 -0.25011,0.132512 -0.49823,0.294469 -0.24812,0.161959 -0.58805,0.372475 -0.75539,0.467815 l -0.30426,0.173346 v 3.004842 3.004841 h -0.3638 -0.36381 v -2.794662 c 0,-3.214392 0.0386,-2.921381 -0.34671,-2.629714 -0.51784,0.391954 -1.01711,0.696919 -1.82287,1.113463 -0.32924,0.170203 -0.62093,0.335422 -0.64819,0.367153 -0.0273,0.03173 -0.36665,0.853923 -0.7542,1.827093 -0.68043,1.708608 -0.70996,1.774618 -0.85935,1.921253 -0.093,0.09129 -0.19814,0.160539 -0.26361,0.173633 -0.16189,0.03238 -0.40347,0.02161 -0.49922,-0.02225 z m 2.51981,-7.875278 c -0.0141,-0.0191 -0.2028,-0.598291 -0.41931,-1.287084 -0.21651,-0.688795 -0.41133,-1.259135 -0.43293,-1.267424 -0.0216,-0.0083 -0.45363,0.118348 -0.96006,0.281417 -1.01807,0.327817 -1.11798,0.350421 -1.32189,0.299077 -0.30846,-0.07767 -0.34494,-0.133287 -1.17138,-1.785897 -0.73804,-1.475867 -0.75915,-1.523603 -0.75915,-1.717227 0,-0.508681 0.43576,-0.829321 0.93766,-0.689956 0.25368,0.07044 0.35909,0.228583 0.96333,1.445154 0.30884,0.621827 0.57801,1.136921 0.59816,1.144653 0.0373,0.01431 6.52483,-2.637605 6.56415,-2.683241 0.0118,-0.01374 0.21169,-0.553325 0.44411,-1.199074 0.28756,-0.798961 0.45321,-1.212883 0.51846,-1.295509 0.12771,-0.161732 0.33507,-0.258918 0.55243,-0.258918 0.42652,0 0.71257,0.286787 0.70926,0.711068 -10e-4,0.170256 -0.0673,0.379416 -0.46429,1.472794 -0.2545,0.700897 -0.49391,1.335466 -0.53201,1.410153 -0.085,0.166642 -0.16296,0.223457 -1.26235,0.920168 -0.48204,0.305478 -0.89398,0.571895 -0.91544,0.592036 -0.0298,0.02802 5e-4,0.383615 0.12954,1.514874 0.13722,1.203602 0.16076,1.487615 0.12672,1.528639 -0.0613,0.07391 -0.73467,0.399005 -1.06479,0.514101 -0.41993,0.146413 -1.02306,0.285781 -1.41796,0.327659 -0.51406,0.05451 -0.79301,0.06216 -0.82226,0.02254 z m 4.1186,-1.961229 c -0.008,-0.01364 -0.0202,-0.181075 -0.0268,-0.372071 l -0.0119,-0.347265 0.21497,-0.02226 c 0.28939,-0.02996 0.62714,-0.138129 0.92022,-0.294714 1.17889,-0.62984 1.99282,-2.081749 2.26964,-4.048653 0.0802,-0.569982 0.11737,-1.05404 0.1174,-1.529623 l 3e-5,-0.438216 h 0.38034 0.38034 l -1.3e-4,0.190169 c -2.5e-4,0.336444 -0.0662,1.269862 -0.11842,1.676916 -0.23579,1.837544 -0.78418,3.139702 -1.71496,4.072189 -0.61914,0.62028 -1.23489,0.95597 -1.99898,1.089787 -0.31316,0.05484 -0.39047,0.0593 -0.41176,0.02374 z m -3.92392,-3.567017 c -0.38438,-0.103291 -0.72796,-0.394392 -0.90392,-0.765841 -0.0997,-0.210498 -0.10561,-0.244158 -0.10561,-0.603275 0,-0.359117 0.006,-0.392778 0.10561,-0.603275 0.17932,-0.378556 0.5209,-0.66404 0.91833,-0.767532 1.00885,-0.262703 1.94245,0.584186 1.77015,1.605735 -0.14066,0.833879 -0.96127,1.355427 -1.78456,1.134188 z"
       style="fill:#808080;stroke-width:1" />
  </g>
</svg>
